{
  "type": "service_account",
  "project_id": "flashbid-56c1a",
  "private_key_id": "88e4e16ee65ef30619fbc5139ed28307e79aea95",
  "private_key": "-----BEGIN PRIVATE KEY-----\nMIIEvQIBADANBgkqhkiG9w0BAQEFAASCBKcwggSjAgEAAoIBAQCY3vWtJfYrPA1f\nTVtMXHjkeLAhWYg5uqUVfgnktS+aHpuso0xwTrEbVRtu9aCyiNpzMgK9rVGehDJe\nzn4LX9iKgpHkMPBWfbl0rWYf0rRi6sPPp7H8W81DFudGglVvoORofkqfwRscqHBn\nx0mcFRNx/y5+EAem0nIbxjm4WxGhWXCk1zHHwZ1//93mARFrji14u3aFlFhU6Mft\nhVPIICxBd+qfYu9kl2wNet8A51zSgazVh64i3jSuRCyFyW0TH6v1AthmlyBR7zpj\nvTP9G2RC50Il6hUsQwwjkywMIl2bcIXgr0YuMT0MNk1qN15AoLqk4BbLzOkkfnoA\nZHhFtMUtAgMBAAECggEAa0rJKU5keTG7vPDBLFYWr1wZWj7JgqMB7JS6gt+72jKz\nVjaClqxUV3ejOnyA3e15TLKEA/ZaO6RS6gGJq5gIliZQGNVUSZASEtcEvz8WRfq5\nlcv/+ru/09+GURF2v1MwHDrPS1KwIawCwIO5oSeVr0PHsMi1Zht75Qx6RG7+b7wN\nxUGQFX+vdbCfioIF7/gq6zp6rP98jEa9SJ6mjHYjN8WbGvFYZBXgZWGWivwWYdln\niYyBwukJ3eTFEP01xtr7/4L4l/Arkm0wvH1ZmqUnvKw3K66TgnkTyJYTXFLaGJyN\n4o3AxCzIiRM6eO+WStTQD8BdeU6k1Kkf/n+cmQvDzQKBgQDHXfhMIeOdw49O4I3w\nuRkpIoE5euzHW0UIpFCRv6hSrA0WPR2brladYTs3NNVblY+4iRqTCliiqIvGsSHB\nQRmjF4IxURgNnAOSyA2tH/TseCqWjCgsAWPCRT7SehC9rTSChLF5DQF6s8b0Tj7W\nwyLisdGSuzFi9RELJhgOHjiyJwKBgQDES8cV6viAo27djnRYF2NodwjMx/03sYTt\nbwqQeJD2r8QHpTd3g03pXSrbeGqI07wOGGNFDWiNfgn+toQMFRLNifl4Pprl7Tix\nTLLN7khPYwRgzL7CdtKKvLhAmeX/1vSe443kcydDGx7J8Hm4yD90OOQnrZWEpFPB\nXsAYP1vmiwKBgEocSnKynlRFH/6oRttXU10RMIxXf7FT4kOmITUs07t3rZ24tkrq\n8dOrE0IgZ7eVz0k/3hsO24gLs3n22p9mPct8r675gEF+320u5LaYjIli2iIAk+ZX\n1eefqgy/x31a54wlG3vuM8CTF8A1XfKjs1Il28v5vhAVHXLRhFurLFQ9AoGAGXro\npcyxYylTy8ihC4pFqhrBdquDEAaoBZYDXgt4bb0VChUFJStTIraoSILR+V7aq025\nHQ6Hgs5Yh8qzS0o0/Z8qVdRykOQBFuqozxheJIfq2pHZNS7tV3r1w9T2SQZjDHjn\nQz87WnebwITJmBXOPszfuNLMdMJL6O7eqocW688CgYEAhlXxi4p1RlLsHg6gSMuo\ngPPGcvkcACCzsg1Uxim/gsLnr4jmfiSwxicr6Gh8zseFe4Byxtg8Yr987bEA8wYQ\ni6RfTPtX1W5alASzsGFN9TOe8eIEd7f0SB0yu7d+7Wu9UHyofuxL6R994qPGgLtA\nI9pmOSQROQVnBZUO5BR1gHw=\n-----END PRIVATE KEY-----\n",
  "client_email": "firebase-adminsdk-aaim9@flashbid-56c1a.iam.gserviceaccount.com",
  "client_id": "103905906441895165693",
  "auth_uri": "https://accounts.google.com/o/oauth2/auth",
  "token_uri": "https://accounts.google.com/o/oauth2/token",
  "auth_provider_x509_cert_url": "https://www.googleapis.com/oauth2/v1/certs",
  "client_x509_cert_url": "https://www.googleapis.com/robot/v1/metadata/x509/firebase-adminsdk-aaim9%40flashbid-56c1a.iam.gserviceaccount.com"
}
