{
    "name": "admin_items_list",
    "description": "Admin List Item",
    "runtime": "nodejs4.3",
    "memory": 250,
    "timeout": 60,
    "role": "arn:aws:iam::954804258659:role/aws-nodejs-dev-IamRoleLambdaExecution-7LS6GPL2FJSJ"
}