{
    "name": "admin_about",
    "description": "About Lists",
    "runtime": "nodejs4.3",
    "memory": 128,
    "timeout": 5,
    "role": "arn:aws:iam::954804258659:role/aws-nodejs-dev-IamRoleLambdaExecution-7LS6GPL2FJSJ"
}